{
   "title": "Beta Reading",
   "by": "",
   "img": "0_sources/0ther/misc/low-res/2019-05-22_beta-readers_by-David-Revoy.jpg",
   "imgalt": "Fairy reading a book,",
   "desc": "Give feedback on the next episode during the creation process. The thread are part of the webcomic repository where translators contributes too.",
   "link": "Future episodes discussions",
   "linkurl": "https://framagit.org/peppercarrot/webcomics/issues?scope=all&utf8=%E2%9C%93&state=all&label_name[]=future%20episode",
   "src": "",
   "srcurl": ""
}
