{
   "title": "The documentation",
   "by": "",
   "img": "0_sources/0ther/misc/low-res/2016-03-08_fairy-on-rpg-dice-20_by-David-Revoy.jpg",
   "imgalt": "Fairy reading a book,",
   "desc": "You'll find here the place where goes all written documents of the project: the CoC, the tutorials for translators, good practise for attribution, etc...",
   "link": "Read the documentation",
   "linkurl": "?static14/documentation",
   "src": "Sources on Gitlab",
   "srcurl": "https://framagit.org/peppercarrot/documentation"
}
