{
   "title": "Wiki of Hereva",
   "by": "Maintained by Craig Maloney",
   "img": "0_sources/0ther/misc/low-res/2019-06_header-wiki_by-David-Revoy.jpg",
   "imgalt": "Hereva planet,",
   "desc": "A full Wiki about Characters, Places, Magic System and more. If you want to know more about the universe of the serie; this is a must read.",
   "link": "Read the Wiki",
   "linkurl": "?static8/wiki",
   "src": "Sources on Gitlab",
   "srcurl": "https://framagit.org/peppercarrot/wiki"
}
